[gd_resource type="AtlasTexture" load_steps=2 format=2]

[ext_resource path="res://sprites/sheet_01_godot.png" type="Texture" id=1]

[resource]
flags = 7
atlas = ExtResource( 1 )
region = Rect2( 964, 596, 29, 65 )
margin = Rect2( 4, 4, 6, 5 )

