[gd_scene load_steps=2 format=2]

[ext_resource path="res://sprites/sheet_01_godot.sprites/sheet_01/decor/tree_001.tres" type="Texture" id=1]

[node name="Bush" type="Node2D"]

[node name="Sprite" type="Sprite" parent="."]
texture = ExtResource( 1 )

