[gd_scene load_steps=2 format=2]

[ext_resource path="res://scenes/Grid.gd" type="Script" id=1]

[node name="Grid" type="Node2D"]
script = ExtResource( 1 )
grid_data = {
"columns": 20,
"rows": 13,
"size": 50
}

[node name="Nodes" type="Node2D" parent="."]

