[gd_resource type="AtlasTexture" load_steps=2 format=2]

[ext_resource path="res://sprites/sheet_01_godot.png" type="Texture" id=1]

[resource]
flags = 7
atlas = ExtResource( 1 )
region = Rect2( 814, 320, 123, 74 )

